…
#Fixed percent and gonorrhea.m being chr, now is numeric.
chicago <- chicago%>%
  mutate_at(vars(`Percent.under.well`),as.numeric)%>%
  mutate_at(vars(`Gonorrhea.M`),as.numeric)
```

    ## Warning: Problem with `mutate()` input `Percent.under.well`.
    ## i NAs introduced by coercion
    ## i Input `Percent.under.well` is `.Primitive("as.double")(Percent.under.well)`.

``` r
chicago
```

    ## # A tibble: 77 x 70
    ##    Community.x Community.Name Birth.Rate General.Fert.Ra~ Low.Birth.Weight
    ##          <dbl> <chr>               <dbl>            <dbl>            <dbl>
    ##  1           1 Rogers Park          16.4             62               11  
    ##  2           2 West Ridge           17.3             83.3              8.1
    ##  3           3 Uptown               13.1             50.5              8.3
    ##  4           4 Lincoln Square       17.1             61                8.1
    ##  5           5 North Center         22.4             76.2              9.1
    ##  6           6 Lake View            13.5             38.7              6.3
    ##  7           7 Lincoln Park         13.2             38.7              6.6
    ##  8           8 Near North Si~       10.7             35.9              8.6
    ##  9           9 Edison Park          11.3             59.5              7.9
    ## 10          10 Norwood Park         10.4             59.6              4.9
    ## # ... with 67 more rows, and 65 more variables: Prenatal.Care.First.Trim <dbl>,
    ## #   Preterm.Births <dbl>, Teen.Birth.Rate <dbl>, `Assault.(Homicide)` <dbl>,
    ## #   Breast.Cancer.F <dbl>, `Cancer.(All.Sites)` <dbl>, Colorectal.Cancer <dbl>,
    ## #   `Diabetes-related` <dbl>, `Firearm-related` <dbl>, Infant.Mort.Rate <dbl>,
    ## #   Lung.Cancer <dbl>, Prostate.Cancer.M <dbl>, Stroke <dbl>,
    ## #   Childhood.Blood.Lead.level <dbl>, Childhood.Lead.Poisoning <dbl>,
    ## #   Gonorrhea.F <dbl>, Gonorrhea.M <dbl>, TB <dbl>, Below.Poverty.Level <dbl>,
    ## #   Crowded.Housing <dbl>, Dependency <dbl>, No.HS.Diploma <dbl>,
    ## #   Per.Capita.Income <dbl>, Unemployment <dbl>, `NON-ENGLISH.LANG` <chr>,
…
## Summary Statistics

``` r
#removed health variables that were not of interest/related to sexual health and poverty
chicago_sex <- chicago%>%
  select(-(9:14),-(16:18),-23,-(25:26))
chicago_sex
```

    ## # A tibble: 77 x 58
    ##    Community.x Community.Name Birth.Rate General.Fert.Ra~ Low.Birth.Weight
    ##          <dbl> <chr>               <dbl>            <dbl>            <dbl>
    ##  1           1 Rogers Park          16.4             62               11  
    ##  2           2 West Ridge           17.3             83.3              8.1
    ##  3           3 Uptown               13.1             50.5              8.3
    ##  4           4 Lincoln Square       17.1             61                8.1
    ##  5           5 North Center         22.4             76.2              9.1
    ##  6           6 Lake View            13.5             38.7              6.3
    ##  7           7 Lincoln Park         13.2             38.7              6.6
    ##  8           8 Near North Si~       10.7             35.9              8.6
    ##  9           9 Edison Park          11.3             59.5              7.9
    ## 10          10 Norwood Park         10.4             59.6              4.9
    ## # ... with 67 more rows, and 53 more variables: Prenatal.Care.First.Trim <dbl>,
    ## #   Preterm.Births <dbl>, Teen.Birth.Rate <dbl>, Infant.Mort.Rate <dbl>,
    ## #   Childhood.Blood.Lead.level <dbl>, Childhood.Lead.Poisoning <dbl>,
    ## #   Gonorrhea.F <dbl>, Gonorrhea.M <dbl>, Below.Poverty.Level <dbl>,
    ## #   No.HS.Diploma <dbl>, Per.Capita.Income <dbl>, Unemployment <dbl>,
    ## #   `NON-ENGLISH.LANG` <chr>, Percent.under.well <dbl>,
    ## #   AFRICAN.LANGUAGES <dbl>, ARABIC <dbl>, ARMENIAN <dbl>,
    ## #   `CAMBODIAN.(MON-KHMER)` <dbl>, CHINESE <dbl>, CREOLE <dbl>, FRENCH <dbl>,
    ## #   GERMAN <dbl>, GREEK <dbl>, GUJARATI <dbl>, HEBREW <dbl>, HINDI <dbl>,
…
#Create proportion for female Gonorrhea rates above average.
gon.data <- chicago_sex.gon%>%
  mutate(gon.rate = Gonorrhea.F/906.0516)%>%
  #put greatest above average rate first
  arrange(desc(gon.rate))%>%
  select(c(gon.rate, 'Percent.under.well', Community.x))%>%
  #remove some points where percent.under.well was unclear
  filter(!Community.x == 47)%>%
 filter(!Community.x == 45)

gon.data
```

    ## # A tibble: 62 x 3
    ##    gon.rate Percent.under.well Community.x
    ##       <dbl>              <dbl>       <dbl>
    ##  1     3.52                  0          26
    ##  2     3.05                  1          67
    ##  3     2.86                  0          68
    ##  4     2.79                  2          29
    ##  5     2.76                  0          69
    ##  6     2.57                  0          27
    ##  7     2.37                  1          40
    ##  8     2.24                  0          71
    ##  9     2.09                  0          44
    ## 10     1.96                  8          46
    ## # ... with 52 more rows

This created gon.data which gives a quick look at the relationship
between gon.rate (ratio of gonorrhea rates per 100,000 females ages
15-44) and Percent.under.well (percent of community which speaks English
less than very well). The results appear to be that more gonorrhea is
associated with knowing more English.

``` r
chicago_sex
```

    ## # A tibble: 77 x 58
    ##    Community.x Community.Name Birth.Rate General.Fert.Ra~ Low.Birth.Weight
    ##          <dbl> <chr>               <dbl>            <dbl>            <dbl>
    ##  1           1 Rogers Park          16.4             62               11  
    ##  2           2 West Ridge           17.3             83.3              8.1
    ##  3           3 Uptown               13.1             50.5              8.3
    ##  4           4 Lincoln Square       17.1             61                8.1
    ##  5           5 North Center         22.4             76.2              9.1
    ##  6           6 Lake View            13.5             38.7              6.3
    ##  7           7 Lincoln Park         13.2             38.7              6.6
    ##  8           8 Near North Si~       10.7             35.9              8.6
    ##  9           9 Edison Park          11.3             59.5              7.9
    ## 10          10 Norwood Park         10.4             59.6              4.9
    ## # ... with 67 more rows, and 53 more variables: Prenatal.Care.First.Trim <dbl>,
    ## #   Preterm.Births <dbl>, Teen.Birth.Rate <dbl>, Infant.Mort.Rate <dbl>,
    ## #   Childhood.Blood.Lead.level <dbl>, Childhood.Lead.Poisoning <dbl>,
    ## #   Gonorrhea.F <dbl>, Gonorrhea.M <dbl>, Below.Poverty.Level <dbl>,
    ## #   No.HS.Diploma <dbl>, Per.Capita.Income <dbl>, Unemployment <dbl>,
    ## #   `NON-ENGLISH.LANG` <chr>, Percent.under.well <dbl>,
    ## #   AFRICAN.LANGUAGES <dbl>, ARABIC <dbl>, ARMENIAN <dbl>,
    ## #   `CAMBODIAN.(MON-KHMER)` <dbl>, CHINESE <dbl>, CREOLE <dbl>, FRENCH <dbl>,
    ## #   GERMAN <dbl>, GREEK <dbl>, GUJARATI <dbl>, HEBREW <dbl>, HINDI <dbl>,
…
``` r
#plot of Gonorrhea, Infant mortality, and Prenatal Care in 1st trimester

library(ggplot2)

#make variable for >70.8 (above us avg)
chicago_sex
```

    ## # A tibble: 77 x 58
    ##    Community.x Community.Name Birth.Rate General.Fert.Ra~ Low.Birth.Weight
    ##          <dbl> <chr>               <dbl>            <dbl>            <dbl>
    ##  1           1 Rogers Park          16.4             62               11  
    ##  2           2 West Ridge           17.3             83.3              8.1
    ##  3           3 Uptown               13.1             50.5              8.3
    ##  4           4 Lincoln Square       17.1             61                8.1
    ##  5           5 North Center         22.4             76.2              9.1
    ##  6           6 Lake View            13.5             38.7              6.3
    ##  7           7 Lincoln Park         13.2             38.7              6.6
    ##  8           8 Near North Si~       10.7             35.9              8.6
    ##  9           9 Edison Park          11.3             59.5              7.9
    ## 10          10 Norwood Park         10.4             59.6              4.9
    ## # ... with 67 more rows, and 53 more variables: Prenatal.Care.First.Trim <dbl>,
    ## #   Preterm.Births <dbl>, Teen.Birth.Rate <dbl>, Infant.Mort.Rate <dbl>,
    ## #   Childhood.Blood.Lead.level <dbl>, Childhood.Lead.Poisoning <dbl>,
    ## #   Gonorrhea.F <dbl>, Gonorrhea.M <dbl>, Below.Poverty.Level <dbl>,
    ## #   No.HS.Diploma <dbl>, Per.Capita.Income <dbl>, Unemployment <dbl>,
    ## #   `NON-ENGLISH.LANG` <chr>, Percent.under.well <dbl>,
    ## #   AFRICAN.LANGUAGES <dbl>, ARABIC <dbl>, ARMENIAN <dbl>,
    ## #   `CAMBODIAN.(MON-KHMER)` <dbl>, CHINESE <dbl>, CREOLE <dbl>, FRENCH <dbl>,
    ## #   GERMAN <dbl>, GREEK <dbl>, GUJARATI <dbl>, HEBREW <dbl>, HINDI <dbl>,
    ## #   HMONG <dbl>, HUNGARIAN <dbl>, ITALIAN <dbl>, JAPANESE <dbl>, KOREAN <dbl>,
    ## #   LAOTIAN <dbl>, NAVAJO <dbl>, OTHER.ASIAN <dbl>, OTHER.INDIC <dbl>,
    ## #   OTHER.INDO.EURPOEAN <dbl>, OTHER.NATIVE.NORTH.AMERICAN <dbl>,
    ## #   OTHER.PACIFIC.ISLAND <dbl>, OTHER.SLAVIC <dbl>, OTHER.WEST.GERMANIC <dbl>,
    ## #   PERSIAN <dbl>, POLISH <dbl>, PORTUGUESE <dbl>, RUSSIAN <dbl>,
    ## #   SCANDINAVIAN <dbl>, `SERBO-CROATIAN` <dbl>, SPANISH <dbl>, TAGALOG <dbl>,
    ## #   THAI <dbl>, UNSPECIFIED <dbl>, URDU <dbl>, VIETNAMESE <dbl>, YIDDISH <dbl>

``` r
chicago_sex.gon
```

    ## # A tibble: 64 x 58
    ##    Community.x Community.Name Birth.Rate General.Fert.Ra~ Low.Birth.Weight
    ##          <dbl> <chr>               <dbl>            <dbl>            <dbl>
    ##  1           1 Rogers Park          16.4             62               11  
    ##  2           2 West Ridge           17.3             83.3              8.1
    ##  3           3 Uptown               13.1             50.5              8.3
    ##  4           4 Lincoln Square       17.1             61                8.1
    ##  5           5 North Center         22.4             76.2              9.1
    ##  6           6 Lake View            13.5             38.7              6.3
    ##  7           7 Lincoln Park         13.2             38.7              6.6
    ##  8           8 Near North Si~       10.7             35.9              8.6
    ##  9          14 Albany Park          18.3             76.5              8.5
    ## 10          15 Portage Park         14.2             66.1              6.9
    ## # ... with 54 more rows, and 53 more variables: Prenatal.Care.First.Trim <dbl>,
    ## #   Preterm.Births <dbl>, Teen.Birth.Rate <dbl>, Infant.Mort.Rate <dbl>,
    ## #   Childhood.Blood.Lead.level <dbl>, Childhood.Lead.Poisoning <dbl>,
    ## #   Gonorrhea.F <dbl>, Gonorrhea.M <dbl>, Below.Poverty.Level <dbl>,
    ## #   No.HS.Diploma <dbl>, Per.Capita.Income <dbl>, Unemployment <dbl>,
    ## #   `NON-ENGLISH.LANG` <chr>, Percent.under.well <dbl>,
    ## #   AFRICAN.LANGUAGES <dbl>, ARABIC <dbl>, ARMENIAN <dbl>,
    ## #   `CAMBODIAN.(MON-KHMER)` <dbl>, CHINESE <dbl>, CREOLE <dbl>, FRENCH <dbl>,
    ## #   GERMAN <dbl>, GREEK <dbl>, GUJARATI <dbl>, HEBREW <dbl>, HINDI <dbl>,
…
``` r
#make variable for >70.8 (above us avg)
chicago_sex
```

    ## # A tibble: 77 x 58
    ##    Community.x Community.Name Birth.Rate General.Fert.Ra~ Low.Birth.Weight
    ##          <dbl> <chr>               <dbl>            <dbl>            <dbl>
    ##  1           1 Rogers Park          16.4             62               11  
    ##  2           2 West Ridge           17.3             83.3              8.1
    ##  3           3 Uptown               13.1             50.5              8.3
    ##  4           4 Lincoln Square       17.1             61                8.1
    ##  5           5 North Center         22.4             76.2              9.1
    ##  6           6 Lake View            13.5             38.7              6.3
    ##  7           7 Lincoln Park         13.2             38.7              6.6
    ##  8           8 Near North Si~       10.7             35.9              8.6
    ##  9           9 Edison Park          11.3             59.5              7.9
    ## 10          10 Norwood Park         10.4             59.6              4.9
    ## # ... with 67 more rows, and 53 more variables: Prenatal.Care.First.Trim <dbl>,
    ## #   Preterm.Births <dbl>, Teen.Birth.Rate <dbl>, Infant.Mort.Rate <dbl>,
    ## #   Childhood.Blood.Lead.level <dbl>, Childhood.Lead.Poisoning <dbl>,
    ## #   Gonorrhea.F <dbl>, Gonorrhea.M <dbl>, Below.Poverty.Level <dbl>,
    ## #   No.HS.Diploma <dbl>, Per.Capita.Income <dbl>, Unemployment <dbl>,
    ## #   `NON-ENGLISH.LANG` <chr>, Percent.under.well <dbl>,
    ## #   AFRICAN.LANGUAGES <dbl>, ARABIC <dbl>, ARMENIAN <dbl>,
    ## #   `CAMBODIAN.(MON-KHMER)` <dbl>, CHINESE <dbl>, CREOLE <dbl>, FRENCH <dbl>,
    ## #   GERMAN <dbl>, GREEK <dbl>, GUJARATI <dbl>, HEBREW <dbl>, HINDI <dbl>,
    ## #   HMONG <dbl>, HUNGARIAN <dbl>, ITALIAN <dbl>, JAPANESE <dbl>, KOREAN <dbl>,
    ## #   LAOTIAN <dbl>, NAVAJO <dbl>, OTHER.ASIAN <dbl>, OTHER.INDIC <dbl>,
    ## #   OTHER.INDO.EURPOEAN <dbl>, OTHER.NATIVE.NORTH.AMERICAN <dbl>,
    ## #   OTHER.PACIFIC.ISLAND <dbl>, OTHER.SLAVIC <dbl>, OTHER.WEST.GERMANIC <dbl>,
    ## #   PERSIAN <dbl>, POLISH <dbl>, PORTUGUESE <dbl>, RUSSIAN <dbl>,
    ## #   SCANDINAVIAN <dbl>, `SERBO-CROATIAN` <dbl>, SPANISH <dbl>, TAGALOG <dbl>,
    ## #   THAI <dbl>, UNSPECIFIED <dbl>, URDU <dbl>, VIETNAMESE <dbl>, YIDDISH <dbl>

``` r
chicago_sex.gon
```

    ## # A tibble: 64 x 58
    ##    Community.x Community.Name Birth.Rate General.Fert.Ra~ Low.Birth.Weight
    ##          <dbl> <chr>               <dbl>            <dbl>            <dbl>
    ##  1           1 Rogers Park          16.4             62               11  
    ##  2           2 West Ridge           17.3             83.3              8.1
    ##  3           3 Uptown               13.1             50.5              8.3
    ##  4           4 Lincoln Square       17.1             61                8.1
    ##  5           5 North Center         22.4             76.2              9.1
    ##  6           6 Lake View            13.5             38.7              6.3
    ##  7           7 Lincoln Park         13.2             38.7              6.6
    ##  8           8 Near North Si~       10.7             35.9              8.6
    ##  9          14 Albany Park          18.3             76.5              8.5
    ## 10          15 Portage Park         14.2             66.1              6.9
    ## # ... with 54 more rows, and 53 more variables: Prenatal.Care.First.Trim <dbl>,
    ## #   Preterm.Births <dbl>, Teen.Birth.Rate <dbl>, Infant.Mort.Rate <dbl>,
    ## #   Childhood.Blood.Lead.level <dbl>, Childhood.Lead.Poisoning <dbl>,
    ## #   Gonorrhea.F <dbl>, Gonorrhea.M <dbl>, Below.Poverty.Level <dbl>,
    ## #   No.HS.Diploma <dbl>, Per.Capita.Income <dbl>, Unemployment <dbl>,
    ## #   `NON-ENGLISH.LANG` <chr>, Percent.under.well <dbl>,
    ## #   AFRICAN.LANGUAGES <dbl>, ARABIC <dbl>, ARMENIAN <dbl>,
    ## #   `CAMBODIAN.(MON-KHMER)` <dbl>, CHINESE <dbl>, CREOLE <dbl>, FRENCH <dbl>,
    ## #   GERMAN <dbl>, GREEK <dbl>, GUJARATI <dbl>, HEBREW <dbl>, HINDI <dbl>,
…
``` r
chicago_sex.gon%>%
  arrange(`NON-ENGLISH.LANG`)
```

    ## # A tibble: 64 x 58
    ##    Community.x Community.Name Birth.Rate General.Fert.Ra~ Low.Birth.Weight
    ##          <dbl> <chr>               <dbl>            <dbl>            <dbl>
    ##  1          45 Avalon Park          13.3             69.6             19.7
    ##  2          47 Burnside             12.9             64                7.9
    ##  3          32 Loop                  9.4             27.7              5.3
    ##  4          33 Near South Si~       21.4             72.9              8.8
    ##  5          34 Armour Square        11.5             57.1             12.4
    ##  6          35 Douglas              10.3             42.2             11.7
    ##  7          41 Hyde Park             9.7             33.9              5.9
    ##  8          60 Bridgeport           11.7             51.7              8  
    ##  9           1 Rogers Park          16.4             62               11  
    ## 10           2 West Ridge           17.3             83.3              8.1
    ## # ... with 54 more rows, and 53 more variables: Prenatal.Care.First.Trim <dbl>,
    ## #   Preterm.Births <dbl>, Teen.Birth.Rate <dbl>, Infant.Mort.Rate <dbl>,
    ## #   Childhood.Blood.Lead.level <dbl>, Childhood.Lead.Poisoning <dbl>,
    ## #   Gonorrhea.F <dbl>, Gonorrhea.M <dbl>, Below.Poverty.Level <dbl>,
    ## #   No.HS.Diploma <dbl>, Per.Capita.Income <dbl>, Unemployment <dbl>,
    ## #   `NON-ENGLISH.LANG` <chr>, Percent.under.well <dbl>,
    ## #   AFRICAN.LANGUAGES <dbl>, ARABIC <dbl>, ARMENIAN <dbl>,
    ## #   `CAMBODIAN.(MON-KHMER)` <dbl>, CHINESE <dbl>, CREOLE <dbl>, FRENCH <dbl>,
    ## #   GERMAN <dbl>, GREEK <dbl>, GUJARATI <dbl>, HEBREW <dbl>, HINDI <dbl>,
…
## Clustering

``` r
library(cluster)
#clustering with two variables: Birth.Rate and Below.Poverty.Level
myclus_data<- chicago_sex%>%
  select(Birth.Rate, Below.Poverty.Level)
myclus_data
```

    ## # A tibble: 77 x 2
    ##    Birth.Rate Below.Poverty.Level
    ##         <dbl>               <dbl>
    ##  1       16.4                22.7
    ##  2       17.3                15.1
    ##  3       13.1                22.7
    ##  4       17.1                 9.5
    ##  5       22.4                 7.1
    ##  6       13.5                10.5
    ##  7       13.2                11.8
    ##  8       10.7                13.4
    ##  9       11.3                 5.1
    ## 10       10.4                 5.9
    ## # ... with 67 more rows
…
``` r
#make clusters a part of data
mypamclus <- myclus_data %>%
  mutate(cluster = as.factor(mypam1$clustering))
mypamclus
```

    ## # A tibble: 77 x 3
    ##    Birth.Rate Below.Poverty.Level cluster
    ##         <dbl>               <dbl> <fct>  
    ##  1       16.4                22.7 1      
    ##  2       17.3                15.1 2      
    ##  3       13.1                22.7 1      
    ##  4       17.1                 9.5 2      
    ##  5       22.4                 7.1 2      
    ##  6       13.5                10.5 2      
    ##  7       13.2                11.8 2      
    ##  8       10.7                13.4 2      
    ##  9       11.3                 5.1 2      
    ## 10       10.4                 5.9 2      
    ## # ... with 67 more rows
…
``` r
#Make graph data include NON-ENGLISH.LANG variable.
graph <- mypamclus %>% 
  mutate("NON-ENGLISH.LANG" = chicago_sex$"NON-ENGLISH.LANG")
graph
```

    ## # A tibble: 77 x 4
    ##    Birth.Rate Below.Poverty.Level cluster `NON-ENGLISH.LANG`
    ##         <dbl>               <dbl> <fct>   <chr>             
    ##  1       16.4                22.7 1       SPANISH           
    ##  2       17.3                15.1 2       SPANISH           
    ##  3       13.1                22.7 1       SPANISH           
    ##  4       17.1                 9.5 2       SPANISH           
    ##  5       22.4                 7.1 2       SPANISH           
    ##  6       13.5                10.5 2       SPANISH           
    ##  7       13.2                11.8 2       SPANISH           
    ##  8       10.7                13.4 2       SPANISH           
    ##  9       11.3                 5.1 2       POLISH            
    ## 10       10.4                 5.9 2       POLISH            
    ## # ... with 67 more rows
…
